[
  {
    "name": "acorn",
    "version": "4.0.4"
  },
  {
    "name": "acorn",
    "version": "3.3.0"
  },
  {
    "name": "acorn",
    "version": "4.0.11"
  },
  {
    "name": "@angular/animations",
    "version": "4.4.6"
  },
  {
    "name": "cfb",
    "version": "0.11.1"
  },
  {
    "name": "commander",
    "version": "6.2.1"
  },
  {
    "name": "moment",
    "version": "2.29.1"
  }
]