[
  {
    "to": {
      "name": "wolfssl",
      "version": "4.4.0#06816caa52808fbf487e5bba7adc3dba"
    },
    "range": "4.4.0#06816caa52808fbf487e5bba7adc3dba"
  },
  {
    "to": {
      "name": "jerryscript",
      "version": "2.2.0#db2ff4edf3507cf583f1403faccd1068"
    },
    "range": "2.2.0#db2ff4edf3507cf583f1403faccd1068"
  },
  {
    "to": {
      "name": "poco",
      "version": "1.8.1#eda12c4974027c9d4e73174180198d7e"
    },
    "range": "1.8.1#eda12c4974027c9d4e73174180198d7e",
    "dev": true
  },
  {
    "from": {
      "name": "poco",
      "version": "1.8.1#eda12c4974027c9d4e73174180198d7e"
    },
    "to": {
      "name": "pcre",
      "version": "8.45#563d050c69aaa0a61be46bb09ba5c23c"
    },
    "range": "8.45#563d050c69aaa0a61be46bb09ba5c23c",
    "dev": true
  },
  {
    "from": {
      "name": "poco",
      "version": "1.8.1#eda12c4974027c9d4e73174180198d7e"
    },
    "to": {
      "name": "zlib",
      "version": "1.2.13#e377bee636333ae348d51ca90874e353"
    },
    "range": "1.2.13#e377bee636333ae348d51ca90874e353",
    "dev": true
  },
  {
    "from": {
      "name": "poco",
      "version": "1.8.1#eda12c4974027c9d4e73174180198d7e"
    },
    "to": {
      "name": "expat",
      "version": "2.5.0#91e43e4544923e4c934bfad1fa4306f9"
    },
    "range": "2.5.0#91e43e4544923e4c934bfad1fa4306f9",
    "dev": true
  },
  {
    "from": {
      "name": "poco",
      "version": "1.8.1#eda12c4974027c9d4e73174180198d7e"
    },
    "to": {
      "name": "sqlite3",
      "version": "3.40.1#42e44d48d880b6520ae0fea7dc51b3da"
    },
    "range": "3.40.1#42e44d48d880b6520ae0fea7dc51b3da",
    "dev": true
  },
  {
    "from": {
      "name": "poco",
      "version": "1.8.1#eda12c4974027c9d4e73174180198d7e"
    },
    "to": {
      "name": "openssl",
      "version": "1.1.1t#7d9fc949345908e1b8609d9d9f528a08"
    },
    "range": "1.1.1t#7d9fc949345908e1b8609d9d9f528a08",
    "dev": true
  },
  {
    "to": {
      "name": "libarchive",
      "version": "3.4.0#7f71828b8aca1efde3da1ae3f5bae456"
    },
    "range": "3.4.0#7f71828b8aca1efde3da1ae3f5bae456"
  },
  {
    "from": {
      "name": "libarchive",
      "version": "3.4.0#7f71828b8aca1efde3da1ae3f5bae456"
    },
    "to": {
      "name": "zlib",
      "version": "1.2.13#e377bee636333ae348d51ca90874e353"
    },
    "range": "1.2.13#e377bee636333ae348d51ca90874e353"
  },
  {
    "from": {
      "name": "libarchive",
      "version": "3.4.0#7f71828b8aca1efde3da1ae3f5bae456"
    },
    "to": {
      "name": "libiconv",
      "version": "1.17#fa54397801cd96911a8294bc5fc76335"
    },
    "range": "1.17#fa54397801cd96911a8294bc5fc76335"
  },
  {
    "to": {
      "name": "zstd",
      "version": "1.4.4#1ed9e24e35999bbbb576401e9917990d"
    },
    "range": "1.4.4#1ed9e24e35999bbbb576401e9917990d"
  },
  {
    "to": {
      "name": "zlib",
      "version": "1.2.13#e377bee636333ae348d51ca90874e353"
    },
    "range": "1.2.13#e377bee636333ae348d51ca90874e353"
  },
  {
    "from": {
      "name": "pcre",
      "version": "8.45#563d050c69aaa0a61be46bb09ba5c23c"
    },
    "to": {
      "name": "bzip2",
      "version": "1.0.8#411fc05e80d47a89045edc1ee6f23c1d"
    },
    "range": "1.0.8#411fc05e80d47a89045edc1ee6f23c1d",
    "dev": true
  },
  {
    "from": {
      "name": "pcre",
      "version": "8.45#563d050c69aaa0a61be46bb09ba5c23c"
    },
    "to": {
      "name": "zlib",
      "version": "1.2.13#e377bee636333ae348d51ca90874e353"
    },
    "range": "1.2.13#e377bee636333ae348d51ca90874e353",
    "dev": true
  }
]
