[
  {
    "to": {
      "name": "jerryscript",
      "version": "2.2.0"
    },
    "range": "2.2.0"
  },
  {
    "to": {
      "name": "poco",
      "version": "1.8.1"
    },
    "range": "1.8.1"
  },
  {
    "from": {
      "name": "poco",
      "version": "1.8.1"
    },
    "to": {
      "name": "openssl",
      "version": "1.1.1g"
    },
    "range": "1.1.1g"
  },
  {
    "to": {
      "name": "zlib",
      "version": "1.2.11"
    },
    "range": "1.2.11"
  },
  {
    "to": {
      "name": "libarchive",
      "version": "3.4.0"
    },
    "range": "3.4.0",
    "dev": true
  },
  {
    "from": {
      "name": "libarchive",
      "version": "3.4.0"
    },
    "to": {
      "name": "zlib",
      "version": "1.2.11"
    },
    "range": "1.2.11",
    "dev": true
  },
  {
    "from": {
      "name": "libarchive",
      "version": "3.4.0"
    },
    "to": {
      "name": "libiconv",
      "version": "1.15"
    },
    "range": "1.15",
    "dev": true
  }
]
