{
  "filepath": "go/go.sum",
  "package_manager": "go",
  "package_type": "go",
  "packages": [
    {
      "name": "github.com/apache/thrift",
      "version": "v1.7.2"
    },
    {
      "name": "github.com/apache/thrift",
      "version": "v1.7.4"
    },
    {
      "name": "github.com/go-gitea/gitea",
      "version": "v0.0.0-2019021509191550218791-c3a963bbd7a8"
    },
    {
      "name": "github.com/go-gitea/gitea",
      "version": "v0.0.0-2019022721131551298393-bfd52f320019"
    },
    {
      "name": "github.com/facebook/fbthrift/thrift/lib/go/thrift",
      "version": "v0.0.0-20180304035542-bfd52f320019"
    }
  ],
  "affections": [
    {
      "dependency": {
        "name": "github.com/apache/thrift",
        "version": "v1.7.2"
      },
      "advisory": {
        "identifier": "CVE-2019-0210",
        "cvss_v2": "AV:N/AC:L/Au:N/C:N/I:N/A:P",
        "cvss_v3": "CVSS:3.1/AV:N/AC:L/PR:N/UI:N/S:U/C:N/I:N/A:H",
        "title": "First vuln",
        "description": "First vuln description",
        "date": "2019-10-30",
        "affected_range": ">=v1.7.2 <=v1.7.3",
        "fixed_versions": [
          "v1.7.4"
        ],
        "affected_versions": "Affected text 1",
        "not_impacted": "Not impacted text 1",
        "solution": "Solution text 1",
        "urls": [
          "https://example.com/1"
        ],
        "package_slug": {
          "type": "go",
          "name": "github.com/apache/thrift"
        },
        "uuid": "15a31544-130d-4e8e-bbe6-a90f1db0a2b5"
      }
    },
    {
      "dependency": {
        "name": "github.com/go-gitea/gitea",
        "version": "v0.0.0-2019021509191550218791-c3a963bbd7a8"
      },
      "advisory": {
        "identifier": "CVE-2019-0211",
        "cvss_v2": "AV:N/AC:L/Au:N/C:N/I:N/A:Q",
        "cvss_v3": "CVSS:3.1/AV:N/AC:L/PR:N/UI:N/S:U/C:N/I:N/A:I",
        "title": "Second vuln",
        "description": "Second vuln description",
        "date": "2019-10-30",
        "affected_range": ">=v0.0.0-2019021509191550218791-c3a963bbd7a8 <v0.0.0-2019022721131551298393-bfd52f320019",
        "fixed_versions": [
          "v0.0.0-2019022721131551298393-bfd52f320019"
        ],
        "affected_versions": "Affected text 2",
        "not_impacted": "Not impacted text 2",
        "solution": "Solution text 2",
        "urls": [
          "https://example.com/2"
        ],
        "package_slug": {
          "type": "go",
          "name": "github.com/go-gitea/gitea"
        },
        "uuid": "15a31544-130d-4e8e-bbe6-a90f1db0a2b6"
      }
    },
    {
      "dependency": {
        "name": "github.com/facebook/fbthrift/thrift/lib/go/thrift",
        "version": "v0.0.0-20180304035542-bfd52f320019"
      },
      "advisory": {
        "identifier": "CVE-2019-3564",
        "title": "Improper Input Validation",
        "description": "Description.",
        "date": "2019-10-09",
        "affected_range": "<v2019.03.04.00",
        "fixed_versions": [
          "v2019.03.04.00"
        ],
        "affected_versions": "All versions before 2019.03.04.00",
        "not_impacted": "All versions starting from 2019.03.04.00",
        "solution": "Upgrade to version 2019.03.04.00 or above.",
        "urls": [
          "https://nvd.nist.gov/vuln/detail/CVE-2019-3564",
          "https://www.facebook.com/security/advisories/cve-2019-3564"
        ],
        "package_slug": {
          "type": "go",
          "name": "github.com/facebook/fbthrift/thrift/lib/go/thrift"
        },
        "uuid": "2582019a-7398-42f7-8d75-bfcee0dd1e87",
        "versions": [
          {
            "number": "v2019.03.04.00",
            "commit": {
              "tags": [
                "v2019.03.04.00"
              ],
              "sha": "fc82aa6cfdb437dabf18c606ed23129e5973b5ea",
              "timestamp": "20190304035542"
            }
          }
        ]
      }
    }
  ]
}
