{
  "version": "15.0.0",
  "vulnerabilities": [
    {
      "id": "e131aeb505de314f9dd904e90648f3d5b641bb4561d542fd7b574bd67df0a738",
      "name": "Reachable Assertion",
      "description": "JerryScript allows attackers to cause a denial of service (assertion failure) because a property key query for a Proxy object returns unintended data.",
      "cve": "",
      "severity": "High",
      "solution": "Upgrade to version 2.3.0 or above.",
      "location": {
        "file": "conan.lock",
        "dependency": {
          "iid": 8,
          "package": {
            "name": "jerryscript"
          },
          "version": "2.2.0"
        }
      },
      "identifiers": [
        {
          "type": "gemnasium",
          "name": "Gemnasium-30e927ab-bba0-4585-a3b8-892baf51676e",
          "value": "30e927ab-bba0-4585-a3b8-892baf51676e",
          "url": "https://gitlab.com/gitlab-org/security-products/gemnasium-db/-/blob/v1.2.142/conan/jerryscript/CVE-2020-13622.yml"
        },
        {
          "type": "cve",
          "name": "CVE-2020-13622",
          "value": "CVE-2020-13622",
          "url": "https://cve.mitre.org/cgi-bin/cvename.cgi?name=CVE-2020-13622"
        }
      ],
      "links": [
        {
          "url": "https://nvd.nist.gov/vuln/detail/CVE-2020-13622"
        }
      ],
      "details": {
        "vulnerable_package": {
          "type": "text",
          "name": "Vulnerable Package",
          "value": "jerryscript:2.2.0"
        }
      }
    },
    {
      "id": "af050b500b294ce7c9fb2da03c44708230384d52513e63f205f01dea5fda8a6f",
      "name": "Uncontrolled Resource Consumption",
      "description": "JerryScript allows attackers to cause a denial of service (stack consumption) via a proxy operation.",
      "cve": "",
      "severity": "High",
      "solution": "Upgrade to version 2.3.0 or above.",
      "location": {
        "file": "conan.lock",
        "dependency": {
          "iid": 8,
          "package": {
            "name": "jerryscript"
          },
          "version": "2.2.0"
        }
      },
      "identifiers": [
        {
          "type": "gemnasium",
          "name": "Gemnasium-1dbd122e-b5ab-4cf0-a81b-545500fcfd5e",
          "value": "1dbd122e-b5ab-4cf0-a81b-545500fcfd5e",
          "url": "https://gitlab.com/gitlab-org/security-products/gemnasium-db/-/blob/v1.2.142/conan/jerryscript/CVE-2020-13623.yml"
        },
        {
          "type": "cve",
          "name": "CVE-2020-13623",
          "value": "CVE-2020-13623",
          "url": "https://cve.mitre.org/cgi-bin/cvename.cgi?name=CVE-2020-13623"
        }
      ],
      "links": [
        {
          "url": "https://nvd.nist.gov/vuln/detail/CVE-2020-13623"
        }
      ],
      "details": {
        "vulnerable_package": {
          "type": "text",
          "name": "Vulnerable Package",
          "value": "jerryscript:2.2.0"
        }
      }
    },
    {
      "id": "78011a223db51b3bf472f9a0833e87abbe53b37c874c9708a82b480cac93fdae",
      "name": "NULL Pointer Dereference",
      "description": "`parser/js/js-scanner.c` in JerryScript mishandles errors during certain out-of-memory conditions, as demonstrated by a `scanner_reverse_info_list` NULL pointer dereference and a `scanner_scan_all` assertion failure.",
      "cve": "",
      "severity": "High",
      "solution": "Upgrade to version 2.3.0 or above.",
      "location": {
        "file": "conan.lock",
        "dependency": {
          "iid": 8,
          "package": {
            "name": "jerryscript"
          },
          "version": "2.2.0"
        }
      },
      "identifiers": [
        {
          "type": "gemnasium",
          "name": "Gemnasium-e38493c1-c8ba-40b7-9d94-ea7fec727336",
          "value": "e38493c1-c8ba-40b7-9d94-ea7fec727336",
          "url": "https://gitlab.com/gitlab-org/security-products/gemnasium-db/-/blob/v1.2.142/conan/jerryscript/CVE-2020-13649.yml"
        },
        {
          "type": "cve",
          "name": "CVE-2020-13649",
          "value": "CVE-2020-13649",
          "url": "https://cve.mitre.org/cgi-bin/cvename.cgi?name=CVE-2020-13649"
        }
      ],
      "links": [
        {
          "url": "https://nvd.nist.gov/vuln/detail/CVE-2020-13649"
        }
      ],
      "details": {
        "vulnerable_package": {
          "type": "text",
          "name": "Vulnerable Package",
          "value": "jerryscript:2.2.0"
        }
      }
    },
    {
      "id": "8cb08118ddae2c25467d900be72a4b76f7e68b07392c03a6d4f6c3bc1804cd87",
      "name": "Improper Restriction of Operations within the Bounds of a Memory Buffer",
      "description": "An issue was discovered in `ecma/operations/ecma-container-object.c` in JerryScript. Operations with key/value pairs did not consider the case where garbage collection is triggered after the key operation but before the value operation, as demonstrated by improper read access to memory in `ecma_gc_set_object_visited` in `ecma/base/ecma-gc.c`.",
      "cve": "",
      "severity": "High",
      "solution": "Upgrade to version 2.3.0 or above.",
      "location": {
        "file": "conan.lock",
        "dependency": {
          "iid": 8,
          "package": {
            "name": "jerryscript"
          },
          "version": "2.2.0"
        }
      },
      "identifiers": [
        {
          "type": "gemnasium",
          "name": "Gemnasium-013a038e-8865-4f92-aedc-0796684481d4",
          "value": "013a038e-8865-4f92-aedc-0796684481d4",
          "url": "https://gitlab.com/gitlab-org/security-products/gemnasium-db/-/blob/v1.2.142/conan/jerryscript/CVE-2020-14163.yml"
        },
        {
          "type": "cve",
          "name": "CVE-2020-14163",
          "value": "CVE-2020-14163",
          "url": "https://cve.mitre.org/cgi-bin/cvename.cgi?name=CVE-2020-14163"
        }
      ],
      "links": [
        {
          "url": "https://nvd.nist.gov/vuln/detail/CVE-2020-14163"
        }
      ],
      "details": {
        "vulnerable_package": {
          "type": "text",
          "name": "Vulnerable Package",
          "value": "jerryscript:2.2.0"
        }
      }
    },
    {
      "id": "3ff7b28da7471d287d5637f54d1788128ce0eb01c3ff3ef90d6f7a6c42e41199",
      "name": "Out-of-bounds Read",
      "description": "JerryScript is vulnerable to a buffer over-read.",
      "cve": "",
      "severity": "High",
      "solution": "Unfortunately, there is no solution available yet.",
      "location": {
        "file": "conan.lock",
        "dependency": {
          "iid": 8,
          "package": {
            "name": "jerryscript"
          },
          "version": "2.2.0"
        }
      },
      "identifiers": [
        {
          "type": "gemnasium",
          "name": "Gemnasium-7c4e8b05-e4e2-43fc-8fea-665da419fd04",
          "value": "7c4e8b05-e4e2-43fc-8fea-665da419fd04",
          "url": "https://gitlab.com/gitlab-org/security-products/gemnasium-db/-/blob/v1.2.142/conan/jerryscript/CVE-2020-24344.yml"
        },
        {
          "type": "cve",
          "name": "CVE-2020-24344",
          "value": "CVE-2020-24344",
          "url": "https://cve.mitre.org/cgi-bin/cvename.cgi?name=CVE-2020-24344"
        }
      ],
      "links": [
        {
          "url": "https://github.com/jerryscript-project/jerryscript/issues/3976"
        },
        {
          "url": "https://nvd.nist.gov/vuln/detail/CVE-2020-24344"
        }
      ],
      "details": {
        "vulnerable_package": {
          "type": "text",
          "name": "Vulnerable Package",
          "value": "jerryscript:2.2.0"
        }
      }
    },
    {
      "id": "303f7b1347c6ac0c9d4055a42a74a28db454ed58195d897463002f895bd35af0",
      "name": "Out-of-bounds Write",
      "description": "JerryScript allows stack consumption via `function a(){new new Proxy(a,{})}JSON.parse(\"[]\",a).`",
      "cve": "",
      "severity": "High",
      "solution": "Unfortunately, there is no solution available yet.",
      "location": {
        "file": "conan.lock",
        "dependency": {
          "iid": 8,
          "package": {
            "name": "jerryscript"
          },
          "version": "2.2.0"
        }
      },
      "identifiers": [
        {
          "type": "gemnasium",
          "name": "Gemnasium-57af9db1-0aaf-482d-b0b5-1ea4f2027ca0",
          "value": "57af9db1-0aaf-482d-b0b5-1ea4f2027ca0",
          "url": "https://gitlab.com/gitlab-org/security-products/gemnasium-db/-/blob/v1.2.142/conan/jerryscript/CVE-2020-24345.yml"
        },
        {
          "type": "cve",
          "name": "CVE-2020-24345",
          "value": "CVE-2020-24345",
          "url": "https://cve.mitre.org/cgi-bin/cvename.cgi?name=CVE-2020-24345"
        }
      ],
      "links": [
        {
          "url": "https://github.com/jerryscript-project/jerryscript/issues/3977"
        },
        {
          "url": "https://nvd.nist.gov/vuln/detail/CVE-2020-24345"
        }
      ],
      "details": {
        "vulnerable_package": {
          "type": "text",
          "name": "Vulnerable Package",
          "value": "jerryscript:2.2.0"
        }
      }
    },
    {
      "id": "7a22627b061dc5c4ac22410960b6312402ab21b70849ec4b1c5d59e33082b792",
      "name": "Improper Input Validation",
      "description": "wolfSSL mishandles the change_cipher_spec (CCS) message processing logic for TLS 1.3. If an attacker sends `ChangeCipherSpec` messages in a crafted way involving more than one in a row, the server becomes stuck in the `ProcessReply()` loop, i.e., a denial of service.",
      "cve": "",
      "severity": "High",
      "solution": "Unfortunately, there is no solution available yet.",
      "location": {
        "file": "conan.lock",
        "dependency": {
          "iid": 6,
          "package": {
            "name": "wolfssl"
          },
          "version": "4.4.0"
        }
      },
      "identifiers": [
        {
          "type": "gemnasium",
          "name": "Gemnasium-3ecb7d77-2505-4ba8-8598-781d7bbfeaf8",
          "value": "3ecb7d77-2505-4ba8-8598-781d7bbfeaf8",
          "url": "https://gitlab.com/gitlab-org/security-products/gemnasium-db/-/blob/v1.2.142/conan/wolfssl/CVE-2020-12457.yml"
        },
        {
          "type": "cve",
          "name": "CVE-2020-12457",
          "value": "CVE-2020-12457",
          "url": "https://cve.mitre.org/cgi-bin/cvename.cgi?name=CVE-2020-12457"
        }
      ],
      "links": [
        {
          "url": "https://nvd.nist.gov/vuln/detail/CVE-2020-12457"
        }
      ],
      "details": {
        "vulnerable_package": {
          "type": "text",
          "name": "Vulnerable Package",
          "value": "wolfssl:4.4.0"
        }
      }
    },
    {
      "id": "dada440c350ad4898d5a63b45320fa6ec50f76061a11fb9088a04dc6bae450ff",
      "name": "Concurrent Execution using Shared Resource with Improper Synchronization (Race Condition)",
      "description": "An issue was discovered in wolfSSL when single precision is not employed. Local attackers can conduct a cache-timing attack against public key operations. These attackers may already have obtained sensitive information if the affected system has been used for private key operations (e.g., signing with a private key).",
      "cve": "",
      "severity": "High",
      "solution": "Unfortunately, there is no solution available yet.",
      "location": {
        "file": "conan.lock",
        "dependency": {
          "iid": 6,
          "package": {
            "name": "wolfssl"
          },
          "version": "4.4.0"
        }
      },
      "identifiers": [
        {
          "type": "gemnasium",
          "name": "Gemnasium-f23a47a2-7a1d-46fa-a245-f9d92b1e7e2a",
          "value": "f23a47a2-7a1d-46fa-a245-f9d92b1e7e2a",
          "url": "https://gitlab.com/gitlab-org/security-products/gemnasium-db/-/blob/v1.2.142/conan/wolfssl/CVE-2020-15309.yml"
        },
        {
          "type": "cve",
          "name": "CVE-2020-15309",
          "value": "CVE-2020-15309",
          "url": "https://cve.mitre.org/cgi-bin/cvename.cgi?name=CVE-2020-15309"
        }
      ],
      "links": [
        {
          "url": "https://nvd.nist.gov/vuln/detail/CVE-2020-15309"
        }
      ],
      "details": {
        "vulnerable_package": {
          "type": "text",
          "name": "Vulnerable Package",
          "value": "wolfssl:4.4.0"
        }
      }
    },
    {
      "id": "4013c8320d49125977b691d2df8fe3722ca07487473d240d6d68f12c8a06278f",
      "name": "Uncontrolled Resource Consumption",
      "description": "GNU Bison before 3.5.4 allows attackers to cause a denial of service (application crash).",
      "cve": "",
      "severity": "Medium",
      "solution": "Unfortunately, there is no solution at the moment.",
      "location": {
        "file": "conan.lock",
        "dependency": {
          "iid": 2,
          "package": {
            "name": "boost"
          },
          "version": "1.82.0"
        }
      },
      "identifiers": [
        {
          "type": "gemnasium",
          "name": "Gemnasium-7a149e90-5771-4905-8d4e-a64d311113bd",
          "value": "7a149e90-5771-4905-8d4e-a64d311113bd",
          "url": "https://gitlab.com/gitlab-org/security-products/gemnasium-db/-/blob/v1.2.142/conan/boost/CVE-2020-14150.yml"
        },
        {
          "type": "cve",
          "name": "CVE-2020-14150",
          "value": "CVE-2020-14150",
          "url": "https://cve.mitre.org/cgi-bin/cvename.cgi?name=CVE-2020-14150"
        }
      ],
      "links": [
        {
          "url": "https://nvd.nist.gov/vuln/detail/CVE-2020-14150"
        }
      ],
      "details": {
        "introduced_by_package": {
          "type": "text",
          "name": "Introduced by Package",
          "value": "numcpp:2.11.0"
        },
        "shortest_path": {
          "type": "list",
          "name": "Shortest Path",
          "items": [
            {
              "type": "text",
              "value": "numcpp:2.11.0"
            }
          ]
        },
        "vulnerable_package": {
          "type": "text",
          "name": "Vulnerable Package",
          "value": "boost:1.82.0"
        }
      }
    },
    {
      "id": "c0a7f1d64da1421bc4c3bdb5b3133ac30284a5ef39da1b1e5c5a8fbbb2dac6e5",
      "name": "Cryptographic Issues",
      "description": "An issue was discovered in the DTLS handshake implementation in wolfSSL. Clear DTLS application_data messages in epoch 0 do not produce an out-of-order error. Instead, these messages are returned to the application.",
      "cve": "",
      "severity": "Medium",
      "solution": "Unfortunately, there is no solution available yet.",
      "location": {
        "file": "conan.lock",
        "dependency": {
          "iid": 6,
          "package": {
            "name": "wolfssl"
          },
          "version": "4.4.0"
        }
      },
      "identifiers": [
        {
          "type": "gemnasium",
          "name": "Gemnasium-e93de5b9-5b92-465c-a764-4851ad6920b0",
          "value": "e93de5b9-5b92-465c-a764-4851ad6920b0",
          "url": "https://gitlab.com/gitlab-org/security-products/gemnasium-db/-/blob/v1.2.142/conan/wolfssl/CVE-2020-24585.yml"
        },
        {
          "type": "cve",
          "name": "CVE-2020-24585",
          "value": "CVE-2020-24585",
          "url": "https://cve.mitre.org/cgi-bin/cvename.cgi?name=CVE-2020-24585"
        }
      ],
      "links": [
        {
          "url": "https://nvd.nist.gov/vuln/detail/CVE-2020-24585"
        }
      ],
      "details": {
        "vulnerable_package": {
          "type": "text",
          "name": "Vulnerable Package",
          "value": "wolfssl:4.4.0"
        }
      }
    },
    {
      "id": "58a36cf248c2091ab585120bf0a3c378fc47ac8ab842c49aab98e73d0947014f",
      "name": "Improper Certificate Validation",
      "description": "wolfSSL mishandles TLS server data in the `WAIT_CERT_CR` state, within `SanityCheckTls13MsgReceived()` in `tls13.c`. This is an incorrect implementation of the TLS client state machine. This allows attackers in a privileged network position to completely impersonate any TLS servers, and read or modify potentially sensitive information between clients using the wolfSSL library and these TLS servers.",
      "cve": "",
      "severity": "Medium",
      "solution": "Unfortunately, there is no solution available yet.",
      "location": {
        "file": "conan.lock",
        "dependency": {
          "iid": 6,
          "package": {
            "name": "wolfssl"
          },
          "version": "4.4.0"
        }
      },
      "identifiers": [
        {
          "type": "gemnasium",
          "name": "Gemnasium-f334f11b-6d5d-4654-97b6-101f6faa0ad3",
          "value": "f334f11b-6d5d-4654-97b6-101f6faa0ad3",
          "url": "https://gitlab.com/gitlab-org/security-products/gemnasium-db/-/blob/v1.2.142/conan/wolfssl/CVE-2020-24613.yml"
        },
        {
          "type": "cve",
          "name": "CVE-2020-24613",
          "value": "CVE-2020-24613",
          "url": "https://cve.mitre.org/cgi-bin/cvename.cgi?name=CVE-2020-24613"
        }
      ],
      "links": [
        {
          "url": "https://nvd.nist.gov/vuln/detail/CVE-2020-24613"
        }
      ],
      "details": {
        "vulnerable_package": {
          "type": "text",
          "name": "Vulnerable Package",
          "value": "wolfssl:4.4.0"
        }
      }
    }
  ],
  "dependency_files": [
    {
      "path": "conan.lock",
      "package_manager": "conan",
      "dependencies": [
        {
          "iid": 2,
          "dependency_path": [
            {
              "iid": 1
            }
          ],
          "package": {
            "name": "boost"
          },
          "version": "1.82.0"
        },
        {
          "iid": 4,
          "package": {
            "name": "bzip2"
          },
          "version": "1.0.8"
        },
        {
          "iid": 8,
          "direct": true,
          "package": {
            "name": "jerryscript"
          },
          "version": "2.2.0"
        },
        {
          "iid": 5,
          "package": {
            "name": "libbacktrace"
          },
          "version": "cci.20210118"
        },
        {
          "iid": 1,
          "package": {
            "name": "numcpp"
          },
          "version": "2.11.0"
        },
        {
          "iid": 6,
          "direct": true,
          "package": {
            "name": "wolfssl"
          },
          "version": "4.4.0"
        },
        {
          "iid": 3,
          "package": {
            "name": "zlib"
          },
          "version": "1.2.13"
        },
        {
          "iid": 7,
          "package": {
            "name": "zstd"
          },
          "version": "1.4.4"
        }
      ]
    }
  ],
  "scan": {
    "analyzer": {
      "id": "gemnasium",
      "name": "Gemnasium",
      "url": "https://gitlab.com/gitlab-org/security-products/analyzers/gemnasium",
      "vendor": {
        "name": "GitLab"
      },
      "version": "4.2.1"
    },
    "scanner": {
      "id": "gemnasium",
      "name": "Gemnasium",
      "url": "https://gitlab.com/gitlab-org/security-products/analyzers/gemnasium",
      "vendor": {
        "name": "GitLab"
      },
      "version": "4.2.1"
    },
    "type": "dependency_scanning",
    "start_time": "2023-08-10T17:07:43",
    "end_time": "2023-08-10T17:07:47",
    "status": "success"
  }
}
